<?xml version="1.0" encoding="utf-8"?>
<!-- Generator: Adobe Illustrator 20.1.0, SVG Export Plug-In . SVG Version: 6.00 Build 0)  -->
<svg version="1.1" id="Layer_1" xmlns="http://www.w3.org/2000/svg" xmlns:xlink="http://www.w3.org/1999/xlink" x="0px" y="0px"
	 viewBox="0 0 180 180" style="enable-background:new 0 0 180 180;" xml:space="preserve">
<style type="text/css">
	.st0{fill:#FFFFFF;}
</style>
<path id="Forma_1_copy_3" class="st0" d="M90,0C40.3-0.3-0.2,39.8-0.5,89.5c-0.2,49.7,39.8,90.2,89.6,90.4
	c49.7,0.2,90.2-39.8,90.4-89.6c0-0.2,0-0.3,0-0.5C179.6,40.4,139.5,0.1,90,0z M139.9,60l-55.1,62.3c-2.4,2.8-6.6,3.1-9.5,0.8
	L40.9,95.4c-3-2.4-3.4-6.8-1.1-9.7c2.3-3,6.7-3.5,9.6-1.1c0,0,0,0,0.1,0.1l29.3,23.6l50.8-57.4c2.5-2.9,6.9-3.1,9.7-0.6c0,0,0,0,0,0
	C142.2,52.7,142.4,57.1,139.9,60z"/>
</svg>
