<?xml version="1.0" encoding="utf-8"?>
<!-- Generator: Adobe Illustrator 20.1.0, SVG Export Plug-In . SVG Version: 6.00 Build 0)  -->
<svg version="1.1" id="Layer_1" xmlns="http://www.w3.org/2000/svg" xmlns:xlink="http://www.w3.org/1999/xlink" x="0px" y="0px"
	 viewBox="0 0 180 180" style="enable-background:new 0 0 180 180;" xml:space="preserve">
<style type="text/css">
	.st0{fill:#FFFFFF;}
</style>
<path id="Forma_1_copy_2" class="st0" d="M153.7,26.3c-35-35-91.9-35.1-127.1-0.3c-0.1,0.1-0.2,0.2-0.3,0.3
	c-35.1,35.3-35.1,92.1,0,127.3c35,35,91.9,35.1,127,0.3c0.1-0.1,0.2-0.2,0.3-0.3C188.8,118.4,188.8,61.6,153.7,26.3z M125.5,125.5
	c-2.7,2.7-7,2.7-9.7,0.1c0,0-0.1-0.1-0.1-0.1L90,99.8l-26.9,26.9c-2.8,2.6-7.2,2.6-9.8-0.2c-2.6-2.7-2.6-6.9,0-9.6l27-26.9
	L54.5,64.3c-2.7-2.7-2.7-7.1,0-9.8c2.7-2.7,7.1-2.7,9.8,0l0,0L90,80.2l24.5-24.5c2.7-2.7,7.1-2.7,9.8,0c2.7,2.7,2.7,7.1,0,9.8l0,0
	L99.8,90l25.7,25.7C128.2,118.4,128.2,122.8,125.5,125.5z"/>
</svg>
