<svg xmlns="http://www.w3.org/2000/svg" width="64.875" height="96" viewBox="0 0 64.875 96">
  <defs>
    <style>
      .cls-1 {
        fill: #fff;
        fill-rule: evenodd;
      }
    </style>
  </defs>
  <path id="Double_Tap" data-name="Double Tap" class="cls-1" d="M250.954,73a10.2,10.2,0,0,0-2.5.47,7,7,0,0,0-11.41-4.886A7.013,7.013,0,0,0,230.472,64a8.686,8.686,0,0,0-5,1.572V64.85a19.5,19.5,0,1,0-13.245-.064l0.056,24.957L206.524,83.7a8.19,8.19,0,0,0-11.618,11.545c0.052,0.058,5.269,5.875,12.712,13.317l1.211,1.216c7.058,7.1,13.153,13.224,25.35,13.224,12.629,0,16.854-6.338,20.1-12.829,3.122-6.245,3.158-30.156,3.158-31.171C257.436,75.8,254.407,73,250.954,73ZM202.437,46.5a16.5,16.5,0,1,1,23.035,15.144V58.3a13.508,13.508,0,1,0-13.26-.116l0.008,3.368A16.512,16.512,0,0,1,202.437,46.5ZM218.95,40c-3.919,0-6.762,3.154-6.762,7.5l0.015,7.044a10.5,10.5,0,1,1,13.269.157V47.5C225.472,43.014,222.851,40,218.95,40Zm3.522,35.5a1.5,1.5,0,0,0,3,0v-4c0-3.3,2.99-4.5,5-4.5a4,4,0,0,1,4,4v5.5a1.5,1.5,0,0,0,3,0V74a4,4,0,0,1,8,0v6.5a1.5,1.5,0,0,0,3,0V76.681A7.171,7.171,0,0,1,250.954,76c1.79,0,3.482,1.458,3.482,3,0,6.716-.511,25.169-2.841,29.829C248.539,114.941,245.12,120,234.179,120s-16.366-5.445-23.223-12.339l-1.217-1.222c-7.381-7.38-12.547-13.14-12.655-13.257a5.191,5.191,0,1,1,7.292-7.389l8.33,8.742a1.5,1.5,0,0,0,2.586-1.038l-0.1-45.966c0-2.076.985-4.515,3.762-4.515,3.268,0,3.522,3.429,3.522,4.484v28Z" transform="translate(-192.563 -27)"/>
</svg>
