<?xml version="1.0" encoding="utf-8"?>
<!-- Generator: Adobe Illustrator 20.1.0, SVG Export Plug-In . SVG Version: 6.00 Build 0)  -->
<svg version="1.1"
	 id="svg2" inkscape:output_extension="org.inkscape.output.svg.inkscape" inkscape:version="0.45.1" sodipodi:version="0.32" xmlns:cc="http://web.resource.org/cc/" xmlns:dc="http://purl.org/dc/elements/1.1/" xmlns:inkscape="http://www.inkscape.org/namespaces/inkscape" xmlns:rdf="http://www.w3.org/1999/02/22-rdf-syntax-ns#" xmlns:sodipodi="http://sodipodi.sourceforge.net/DTD/sodipodi-0.dtd" xmlns:svg="http://www.w3.org/2000/svg"
	 xmlns="http://www.w3.org/2000/svg" xmlns:xlink="http://www.w3.org/1999/xlink" x="0px" y="0px" viewBox="0 0 750 264"
	 style="enable-background:new 0 0 750 264;" xml:space="preserve">
<style type="text/css">
	.st0{fill:#A1A0A4;}
	.st1{fill:#EE3224;}
</style>
<g id="layer1" transform="translate(-385.11465,-311.88992)" inkscape:groupmode="layer" inkscape:label="Layer 1">
	<g id="g2893" transform="matrix(60.995758,0,0,-30.902359,551.5435,528.54155)">
	</g>
	<g id="g5107" transform="matrix(21.194344,0,0,-21.194344,-6273.5887,4902.5488)">
		<g id="g5113" transform="translate(324.6116,204.395)">
			<path id="path5115" class="st0" d="M0,0v11.9h-3.2V8.7c0-1,0-2.5,0.1-3.1c-0.3,0.5-1.3,2.1-1.9,2.8l-2.6,3.5h-2.9V0h3.2v3.6
				c0,1,0,2.6-0.1,3.1c0.3-0.5,1.3-2.1,1.9-2.8L-2.7,0H0z"/>
		</g>
		<g id="g5117" transform="translate(349.5604,208.0502)">
			<path id="path5119" class="st0" d="M0,0c0,2.2-1.3,3.1-4.3,3.9c-1.5,0.4-2,0.6-2,1C-6.3,5.3-6,5.6-5,5.6c1.2,0,2.3-0.4,3.3-1.1
				l1.6,2.6c-1.3,0.9-2.7,1.4-4.7,1.4c-2.9,0-4.7-1.5-4.7-3.8c0-2.4,1.4-3.2,4.3-3.8c1.6-0.4,2-0.6,2-1.1C-3.3-0.8-3.7-1-4.8-1
				C-6-1-7.5-0.4-8.3,0.2l-1.6-2.6c1.2-0.8,3.1-1.4,5-1.4C-2.1-3.8,0-2.7,0,0"/>
		</g>
	</g>
</g>
<path class="st1" d="M388.5,0c-72.9,0-132,59.1-132,132c0,72.9,59.1,132,132,132s132-59.1,132-132C520.5,59.1,461.4,0,388.5,0z
	 M388.5,196.7c-35.8,0-64.7-29-64.7-64.7c0-35.8,29-64.7,64.7-64.7c35.8,0,64.7,29,64.7,64.7C453.2,167.8,424.2,196.7,388.5,196.7z"
	/>
</svg>
